MUSSEL ABM - Cluster Output Summary
…
write_csv(temp_df,file = paste0(data_out,"musselabm-","harbor_vessel",".csv"))

4. Plots

detailed example

4.cluster

is data normally dist?

df_to_cluster

## # A tibble: 211 x 7
##    VE_REF       core_area_index area_flexibility total~1 tripl~2 dista~3 sub_grp
##    <chr>                  <dbl>            <dbl>   <dbl>   <dbl>   <dbl> <fct>  
##  1 BEL011101959            919.             3.18   1252.   26.0   82443. 1      
##  2 DEU000070400            515.             3.41    690.   40.6  102810. 2      
##  3 DEU000070500            164.             3.06    716.    9.61  23696. 3      
##  4 DEU000160300            109.             2.99    587.    6.60  19190. 3      
##  5 DEU000200500            338.             3.45    912.   28.9  166331. 4      
##  6 DEU000210300            108.             2.92    331.    6.87  20154. 3      
##  7 DEU000270300            878.             3.31   1607.   41.8  110384. 2      
##  8 DEU000290300           2644.             3.53   3515.   69.0  153246. 2      
##  9 DEU000340500           1388.             3.30    937.   40.0  112494. 2      
## 10 DEU000350300            165.             2.98    730.    8.65  29170. 3      
## # ... with 201 more rows, and abbreviated variable names 1: total_fishinghours,
## #   2: triplength, 3: distance_to_port
…
